p = -3:.1:3;
a1 = radbas(p);
a2 = radbas(p-1.5);
a3 = radbas(p+2);
a = a1 + a2*1 + a3*0.5;
plot(p,a1,p,a2,p,a3*0.5,p,a)

P = -1: .1: 1;
T = [-.9602 -.5770 -.0729 .3771 .6405 .6600 .4609 .1336 -.5013 -.5344 -.5000 -.5930 -.1647 .0988 .3072 .3960 .3449 .1816 -.0312 -.2189 -.3201];
GOAL = 0.01; % Допустиме значення функціоналу помилки
SPREAD = 0.1; % Параметр впливу
net = newrb (P, T, GOAL, SPREAD); % Створення мережі
net.layers {1} .size% Число нейронів в прихованому шарі

plot (P, T, '+ k')% Точки навчальної множини
hold on;
X = -1: .01: 1;
Y = sim (net, X); % Моделювання мережі
plot (X, Y); %

clear all
P = -1:.1:1;
T = [-.9602 -.5770 -.0729 .3771 .6405 .6600 .4609 ...
.1336 -.2013 -.4344 -.5000 -.3930 -.1647 .0988 ...
.3072 .3960 .3449 .1816 -.0312 -.2189 -.3201];
GOAL = 0.01; % Допустиме значення функціоналу помилки
SPREAD = 0.05; % Параметр впливу
net = newrb (P, T, GOAL, SPREAD); % Створення мережі
net.layers {1} .size% Число нейронів в прихованому шарі
plot (P, T, '+ k')% Точки навчальної множини
hold on;
X = -1: .01: 1;
Y = sim (net, X); % Моделювання мережі
plot (X, Y);




P = [1 2 3 4 5 6 7 8 9 10];
T = [0 1 2 3 2 1 2 3 4 6];
spread = 0.7;
net = newgrnn (P, T, spread);
net.layers {1} .size

A = sim (net, P);
plot (P, T, '* k', 'markersize', 10)
hold on,
plot (P, A, 'ok', 'markersize', 10);


P2 = -1: 0.1: 13;
A2 = sim (net, P2);
plot (P2, A2, '- k', 'linewidth', 2)
hold on,
plot (P, T, '* k', 'markersize', 10)






X = [1 2.8; 2 2; 1 2]';
Tc = [1 2 3];
plot(X(1,:),X(2,:),'.','markersize',30)
for i = 1:3, text(X(1,i)+0.1,X(2,i),sprintf('class %g',Tc(i))), end
axis([0 3 0 3])
title('Three vectors and their classes.')
xlabel('X(1,:)')
ylabel('X(2,:)') % Рис.5.13


T = ind2vec(Tc);
spread = 0.7;
net = newpnn(X,T,spread);


Y = net(X);
Yc = vec2ind(Y);
plot(X(1,:),X(2,:),'.','markersize',30)
axis([0 3 0 3])
for i = 1:3,text(X(1,i)+0.1,X(2,i),sprintf('class %g',Yc(i))),end
title('Testing the network.')
xlabel('X(1,:)')
ylabel('X(2,:)')



x = [2; 1.5];
y = net(x);
ac = vec2ind(y);
hold on
plot(x(1),x(2),'.','markersize',30,'color',[1 0 0])
text(x(1)+0.1,x(2),sprintf('class %g',ac))
hold off
title('Classifying y new vector.')
xlabel('X(1,:) and x(1)')
ylabel('X(2,:) and x(2)')


x1 = 0:.05:3;
x2 = x1;
[X1,X2] = meshgrid(x1,x2);
xx = [X1(:) X2(:)]';
yy = net(xx);
yy = full(yy);
m = mesh(X1,X2,reshape(yy(1,:),length(x1),length(x2)));
m.FaceColor = [0 0.5 1];
m.LineStyle = 'none';
hold on
m = mesh(X1,X2,reshape(yy(2,:),length(x1),length(x2)));
m.FaceColor = [0 1.0 0.5];
m.LineStyle = 'none';
m = mesh(X1,X2,reshape(yy(3,:),length(x1),length(x2)));
m.FaceColor = [0.5 0 1];
m.LineStyle = 'none';
plot3(X(1,:),X(2,:),[1 1 1]+0.1,'.','markersize',30)
plot3(x(1),x(2),1.1,'.','markersize',30,'color',[1 0 0])
hold off
view(2)
title('The three classes.')
xlabel('X(1,:) and x(1)')
ylabel('X(2,:) and x(2)')






p1 = sin (1:20);
p2 = sin (1:20) * 2;

t1 = ones(1,20);
t2 = ones(1,20)*2;

p = [p1 p2 p1 p2];
t = [t1 t2 t1 t2];

Pseq = con2seq(p);
Tseq = con2seq(t);

R = 1; % Число елементів входу

S2 = 1;% Число нейронів вихідного шару
S1 = 10; % Число нейронів рекурентного шару

net = newelm([–2 2],[S1 S2],{'tansig','purelin'},'traingdx');

net.trainParam.epochs = 1000;
net.trainParam.show = 25;
net.trainParam.goal = 0.01;
[net,tr] = train(net,Pseq,Tseq);

figure(2)
a = sim(net,Pseq);
time = 1:length(p);
plot(time, t, '-', time, cat(2,a{:}))
axis([1 80 0.8 2.2]) % Рис.5.19


p3 = sin(1:20)*1.8;
t3 = ones(1,20)*1.8;
p4 = sin(1:20)*1.2;
t4 = ones(1,20)*1.2;
pg = [p3 p4 p3 p4];
tg = [t3 t4 t3 t4];
pgseq = con2seq(pg);
figure(3)
a = sim(net,pgseq);
ime = 1:length(pg);
plot(time, tg, '-', time, cat(2,a{:}))
axis([1 80 0.8 2.2])








T = [-1 -1 1; 1 -1 1] '
net = newhop (T);
Ai = T;
[Y,Pf,Af] = sim(net,2,[],Ai);
Ai = {[-0.9; -0.8; 0.7]};
[Y, Pf, Af] = sim (net, {1 5}, {}, Ai);
T = [1 –1; –1 1; 1 1; –1 –1]'
plot(T(1,:), T(2,:),'*r') % Рис.5.21
axis([–1.1 1.1 –1.1 1.1])
title('Точки рівноваги мережі Хопфілда')
xlabel('a(1)'), ylabel('a(2)')
net = newhop (T);
W = net.LW {1,1}
b = net.b {1,1}
Ai = T;
[Y,Pf,Af] = sim(net,4,[],Ai)
Pf = []
plot(T(1,:), T(2,:),'*r'), hold on
axis([–1.1 1.1 –1.1 1.1])
xlabel('a(1)'), ylabel('a(2)')
new = newhop(T);
[Y,Pf,Af] = sim(net,4,[],T);
for i =1:25
a = {rands(2,1)};
[Y,Pf,Af] = sim(net,{1,20},{},a);
record = [cell2mat(a) cell2mat(Y)];
start = cell2mat(a);
plot(start(1,1), start(2,1), 'kx', record(1,:), record(2,:))
end





T = [+1 -1; -1 +1];
plot(T(1,:),T(2,:),'r*')
axis([-1.1 1.1 -1.1 1.1])
title('Hopfield Network State Space')
xlabel('a(1)');
ylabel('a(2)');
net = newhop (T);
[Y,Pf,Af] = net([],[],T);
a = {rands (2,1)};
[y, Pf, Af] = net ({20}, {}, a);
record = [cell2mat(a) cell2mat(y)];
start = cell2mat(a);
hold on
plot(start(1,1),start(2,1),'bx',record(1,:),record(2,:))
color = 'rgbmy';
for i=1:25
a = {rands(2,1)};
[y,Pf,Af] = net({20},{},a);
record=[cell2mat(a) cell2mat(y)];
start=cell2mat(a);
plot(start(1,1),start(2,1),'kx',record(1,:),record(2,:),color(rem(i,5)+1))
end
